…
``` r
collect_metrics(boston_tune_grid)%>%
  arrange(tree_depth)
```

    ## # A tibble: 256 x 9
    ##    cost_complexity tree_depth min_n .metric .estimator   mean     n std_err
    ##              <dbl>      <int> <int> <chr>   <chr>       <dbl> <int>   <dbl>
    ##  1    0.0000000001          1     2 mae     standard    5.65      5  0.158 
    ##  2    0.0000000001          1     2 mape    standard   29.7       5  2.65  
    ##  3    0.0000000001          1     2 rmse    standard    7.63      5  0.134 
    ##  4    0.0000000001          1     2 rsq     standard    0.364     5  0.0197
    ##  5    0.0000001             1     2 mae     standard    5.65      5  0.158 
    ##  6    0.0000001             1     2 mape    standard   29.7       5  2.65  
    ##  7    0.0000001             1     2 rmse    standard    7.63      5  0.134 
    ##  8    0.0000001             1     2 rsq     standard    0.364     5  0.0197
    ##  9    0.0001                1     2 mae     standard    5.65      5  0.158 
    ## 10    0.0001                1     2 mape    standard   29.7       5  2.65  
    ## # ... with 246 more rows, and 1 more variable: .config <chr>
…
collect_metrics(boston_arvore_final_fit)
```

    ## # A tibble: 2 x 4
    ##   .metric .estimator .estimate .config             
    ##   <chr>   <chr>          <dbl> <chr>               
    ## 1 rmse    standard       4.16  Preprocessor1_Model1
    ## 2 rsq     standard       0.772 Preprocessor1_Model1

``` r
collect_predictions(boston_arvore_final_fit)
```

    ## # A tibble: 126 x 5
    ##    id               .pred  .row  medv .config             
    ##    <chr>            <dbl> <int> <dbl> <chr>               
    ##  1 train/test split  21.3    13  21.7 Preprocessor1_Model1
    ##  2 train/test split  20.5    14  20.4 Preprocessor1_Model1
    ##  3 train/test split  21.7    20  18.2 Preprocessor1_Model1
    ##  4 train/test split  20.5    22  19.6 Preprocessor1_Model1
    ##  5 train/test split  14.1    24  14.5 Preprocessor1_Model1
    ##  6 train/test split  14.1    25  15.6 Preprocessor1_Model1
    ##  7 train/test split  20.5    29  18.4 Preprocessor1_Model1
    ##  8 train/test split  14.1    33  13.2 Preprocessor1_Model1
    ##  9 train/test split  23.1    37  20   Preprocessor1_Model1
    ## 10 train/test split  23.1    39  24.7 Preprocessor1_Model1
    ## # ... with 116 more rows
…
